null # 2021-05-07T20:46:54.231#0#alex#annanull # 2021-05-07T20:46:55.227#0#anna#alexnull # 2021-05-07T20:46:55.881#0#alex#annanull # 2021-05-07T20:46:56.436#0#anna#alexnull # 2021-05-07T20:46:59.203#0#alex#annanull # 2021-05-07T20:46:59.763#0#anna#alexnull # 2021-05-07T20:47:47.912#0#anna#alexnull # 2021-05-07T20:47:49.663#0#alex#annanull # 2021-05-07T20:47:51.938#0#alex#annanull # 2021-05-07T20:47:55.379#0#anna#alexnull # 2021-05-07T20:47:58.928#0#alex#anna0 # 2021-05-07T21:04:22.297#0#anna#alex
1 # 2021-05-07T21:04:25.072#0#alex#anna
2 # 2021-05-07T21:04:25.581#0#anna#alex
3 # 2021-05-07T21:04:26.659#0#anna#alex
4 # 2021-05-07T21:05:47.725#0#arina#agnia
5 # 2021-05-07T21:05:48.162#0#agnia#arina
6 # 2021-05-07T21:05:48.620#0#arina#agnia
7 # 2021-05-07T21:05:49.535#0#arina#agnia
8 # 2021-05-07T21:05:52.880#0#agnia#arina
9 # 2021-05-07T23:06:04.716#0#Папа#Арина
10 # 2021-05-07T23:06:06.276#0#Арина#Папа
11 # 2021-05-07T23:06:14.187#0#Папа#Арина
12 # 2021-05-07T23:06:15.668#0#Арина#Папа
13 # 2021-05-07T23:06:27.741#1#Мама#Агния
14 # 2021-05-07T23:06:29.694#1#Мама#Агния
15 # 2021-05-07T23:06:30.646#1#Агния#Мама
16 # 2021-05-07T23:06:31.564#1#Мама#Агния
17 # 2021-05-07T23:06:34.665#1#Агния#Мама
18 # 2021-05-07T23:06:53.360#2#Арина#Мама
19 # 2021-05-07T23:06:54.120#2#Мама#Арина
20 # 2021-05-07T23:06:54.850#2#Арина#Мама
21 # 2021-05-07T23:28:51.003#0#мама#папа
22 # 2021-05-07T23:28:54.058#0#папа#мама
23 # 2021-05-07T23:28:57.856#0#папа#мама
24 # 2021-05-07T23:29:11.351#1#арина#папа
25 # 2021-05-07T23:29:12.877#1#арина#папа
26 # 2021-05-07T23:29:13.564#1#папа#арина
27 # 2021-05-07T23:29:14.229#1#арина#папа
28 # 2021-05-07T23:29:17.157#1#арина#папа
29 # 2021-05-07T23:29:26.316#2#папа#мама
30 # 2021-05-07T23:29:28.699#2#папа#мама
31 # 2021-05-07T23:29:29.376#2#мама#папа
32 # 2021-05-07T23:29:30.033#2#папа#мама
33 # 2021-05-07T23:29:30.727#2#мама#папа
34 # 2021-05-07T23:29:31.449#2#папа#мама
35 # 2021-05-07T23:59:42.942#0#gfgf#vfvf
36 # 2021-05-07T23:59:50.801#1#1#1
37 # 2021-05-07T23:59:51.421#1#1#1
38 # 2021-05-07T23:59:53.865#1#1#1
39 # 2021-05-07T23:59:54.839#1#1#1
40 # 2021-05-07T23:59:57.901#2#2#3
41 # 2021-05-07T23:59:58.277#2#3#2
42 # 2021-05-07T23:59:58.652#2#2#3
43 # 2021-05-07T23:59:58.996#2#3#2
44 # 2021-05-07T23:59:59.364#2#2#3
45 # 2021-05-08T00:00:04.631#2#3#2
46 # 2021-05-08T00:00:06.152#2#3#2
